^C:\USERS\JUSTIN\DOCUMENTS\C++\REPOSITORY\FREEGLUT-2.8.1\PROGS\DEMOS\FRACTALS_RANDOM\FRACTALS_RANDOM.C
C:\USERS\JUSTIN\DOCUMENTS\C++\REPOSITORY\FREEGLUT-2.8.1\VISUALSTUDIO\2012\FRACTALS_RANDOM\DEBUG_STATIC\WIN32_V120\VC120.PDB
C:\USERS\JUSTIN\DOCUMENTS\C++\REPOSITORY\FREEGLUT-2.8.1\VISUALSTUDIO\2012\FRACTALS_RANDOM\DEBUG_STATIC\WIN32_V120\VC120.IDB
C:\USERS\JUSTIN\DOCUMENTS\C++\REPOSITORY\FREEGLUT-2.8.1\VISUALSTUDIO\2012\FRACTALS_RANDOM\DEBUG_STATIC\WIN32_V120\FRACTALS_RANDOM.OBJ
