^C:\USERS\JUSTIN\DOCUMENTS\C++\REPOSITORY\FREEGLUT-2.8.1\PROGS\DEMOS\SMOOTH_OPENGL3\SMOOTH_OPENGL3.C
C:\USERS\JUSTIN\DOCUMENTS\C++\REPOSITORY\FREEGLUT-2.8.1\VISUALSTUDIO\2012\SMOOTH_OPENGL3\DEBUG_STATIC\WIN32_V120\VC120.PDB
C:\USERS\JUSTIN\DOCUMENTS\C++\REPOSITORY\FREEGLUT-2.8.1\VISUALSTUDIO\2012\SMOOTH_OPENGL3\DEBUG_STATIC\WIN32_V120\VC120.IDB
C:\USERS\JUSTIN\DOCUMENTS\C++\REPOSITORY\FREEGLUT-2.8.1\VISUALSTUDIO\2012\SMOOTH_OPENGL3\DEBUG_STATIC\WIN32_V120\SMOOTH_OPENGL3.OBJ
