^C:\USERS\JUSTIN\DOCUMENTS\C++\REPOSITORY\FREEGLUT-2.8.1\VISUALSTUDIO\2012\SMOOTH_OPENGL3\DEBUG_STATIC\WIN32_V120\SMOOTH_OPENGL3.OBJ
C:\USERS\JUSTIN\DOCUMENTS\C++\REPOSITORY\FREEGLUT-2.8.1\PROGS\DEMOS\X86\DEBUG_STATIC\SMOOTH_OPENGL3.ILK
C:\USERS\JUSTIN\DOCUMENTS\C++\REPOSITORY\FREEGLUT-2.8.1\PROGS\DEMOS\X86\DEBUG_STATIC\SMOOTH_OPENGL3.EXE
C:\USERS\JUSTIN\DOCUMENTS\C++\REPOSITORY\FREEGLUT-2.8.1\PROGS\DEMOS\X86\DEBUG_STATIC\SMOOTH_OPENGL3.PDB
