^C:\USERS\JUSTIN\DOCUMENTS\C++\REPOSITORY\FREEGLUT-2.8.1\VISUALSTUDIO\2012\SHAPES\DEBUG_STATIC\WIN32_V120\SHAPES.OBJ
C:\USERS\JUSTIN\DOCUMENTS\C++\REPOSITORY\FREEGLUT-2.8.1\PROGS\DEMOS\X86\DEBUG_STATIC\SHAPES.ILK
C:\USERS\JUSTIN\DOCUMENTS\C++\REPOSITORY\FREEGLUT-2.8.1\PROGS\DEMOS\X86\DEBUG_STATIC\SHAPES.EXE
C:\USERS\JUSTIN\DOCUMENTS\C++\REPOSITORY\FREEGLUT-2.8.1\PROGS\DEMOS\X86\DEBUG_STATIC\SHAPES.PDB
